acct>=8.3.3,<9.0.0
boto3>=1.24.0,<1.25.0
configparser>=5.0.0,<6.0.0
idem>=19.0.0,<22.0.0
pgpy>=0.5.4,<0.6.0
deepdiff>=5.8.0,<6.0.0
heist>=6.1.0,<7.0.0
pycryptodomex>=3.10,<3.14.0
pop-serial>=1.1.0,<2.0.0
cryptography>=37.0.4,<38.0.0
